
name-------------------------
[('masahiko', 6648),
 ('ppl-x', 4325),
 ('shion', 4091),
 ('yukari', 2127),
 ('sora', 1972),
 ('yoko', 1746),
 ('masami', 1556),
 ('kaoru', 1555),
 ('ejima', 1100),
 ('shya', 990),
 ('tatsumi', 934),
 ('hiromi', 550),
 ('younger', 527),
 ('director', 453),
 ('saki', 404),
 ('villain', 391),
 ('makoto', 363),
 ('cameraman', 353),
 ('asagi', 352),
 ('kazuko', 350),
 ('grandpa', 313),
 ('susumu', 258),
 ('kenji', 253),
 ('yoriko', 250),
 ('mori', 192),
 ('ykma', 185),
 ('risa', 173),
 ('mika', 172),
 ('akane', 136),
 ('nishina', 134),
 ('boy', 133),
 ('aoi', 129),
 ('grandma', 115),
 ('fumiya', 107),
 ('kazuko-boy', 101),
 ('player', 101),
 ('reiko', 93),
 ('matsu', 85),
 ('shoko', 82),
 ('tooru', 78),
 ('kyoko', 77),
 ('girl', 74),
 ('kazuma', 72),
 ('kazuki', 59),
 ('mama', 56),
 ('chinatsu', 56),
 ('aya', 54),
 ('tenko', 51),
 ('teacher', 48),
 ('mai', 47),
 ('boss', 43),
 ('kimihiro', 40),
 ('tomomi', 39),
 ('nurse', 31),
 ('chairman', 28),
 ('papa', 24),
 ('kenji-ma', 19),
 ('police', 19),
 ('club-boss', 18),
 ('ejima-girl', 17),
 ('hanzu', 17),
 ('te-chan', 5),
 ('sth', 3),
 ('old-woman', 1),
 ('ryo', 0),
 ('old-man', 0),
 ('masahiko-girl', 0)]
direction-------------------------
[('front', 13320),
 ('side', 12077),
 ('back', 4927),
 ('top', 3435),
 ('down', 1774),
 ('h-side', 168),
 ('h-front', 133),
 ('h-top', 40),
 ('h-down', 39),
 ('h-back', 12)]
expression-------------------------
[('nostalgia', 8894),
 ('surprise', 5567),
 ('exp-x', 5109),
 ('anxiety', 4927),
 ('joy', 4635),
 ('awkward', 4595),
 ('confused', 3713),
 ('anger', 3546),
 ('calm', 3384),
 ('sad', 3055),
 ('awe', 2636),
 ('interest', 2536),
 ('amuse', 2503),
 ('pain', 2444),
 ('fear', 2267),
 ('excited', 1942),
 ('satisfy', 1530),
 ('bored', 1250),
 ('disgust', 1229),
 ('crave', 736),
 ('relief', 483),
 ('romance', 311),
 ('adore', 248),
 ('admire', 224),
 ('sexual', 222),
 ('entranced', 172),
 ('apprec', 77),
 ('horror', 27)]
action-------------------------
[('blush', 4621),
 ('close-eye', 3447),
 ('hold', 3370),
 ('peek', 3218),
 ('bow', 3052),
 ('turn', 2845),
 ('yell', 2613),
 ('sit', 2218),
 ('look-down', 2063),
 ('stand', 1993),
 ('crane', 1628),
 ('tilt', 1444),
 ('act-x', 1428),
 ('pout', 1375),
 ('hand-on-hip', 1335),
 ('drink', 1171),
 ('walk', 1162),
 ('head-up', 1094),
 ('eye-shadow', 987),
 ('wave', 933),
 ('lie', 821),
 ('scratch', 819),
 ('cross-hand', 782),
 ('half-eye', 730),
 ('shy', 722),
 ('confident', 719),
 ('point', 667),
 ('snicker', 654),
 ('look-up', 641),
 ('run', 635),
 ('chin-rest', 586),
 ('cross-arm', 557),
 ('rest', 535),
 ('shrug', 526),
 ('fight', 491),
 ('sweat', 474),
 ('hand-on-head', 473),
 ('hand-on-mouth', 471),
 ('hold-fist', 447),
 ('work', 431),
 ('support', 425),
 ('open-door', 408),
 ('bend-over', 398),
 ('argue', 381),
 ('knee-rest', 377),
 ('drunk', 358),
 ('resolute', 358),
 ('sleep', 357),
 ('hug', 340),
 ('kneel', 337),
 ('snug', 327),
 ('black-face', 323),
 ('suspect', 292),
 ('fall', 290),
 ('eat', 280),
 ('sneak', 278),
 ('welcome', 270),
 ('carry', 259),
 ('refuse', 254),
 ('hide', 239),
 ('play', 226),
 ('sigh', 221),
 ('drag', 219),
 ('tired', 215),
 ('sleepy', 193),
 ('cross-leg', 185),
 ('sick', 178),
 ('hand-on-breast', 173),
 ('smoking', 165),
 ('arm-up', 163),
 ('bare-teeth', 161),
 ('kiss', 159),
 ('whisper', 148),
 ('jump', 139),
 ('hurt', 137),
 ('cheer', 132),
 ('squat', 131),
 ('comfort', 126),
 ('close-door', 125),
 ('hand-on-face', 124),
 ('crouch', 122),
 ('wink', 118),
 ('struggle', 115),
 ('make-up', 113),
 ('palm-face', 109),
 ('deliver', 106),
 ('hand-behind', 102),
 ('wake', 100),
 ('drive', 98),
 ('touch', 97),
 ('fist', 91),
 ('clap', 89),
 ('ride', 84),
 ('push', 79),
 ('shiver', 76),
 ('bath', 74),
 ('accost', 66),
 ('flirt', 65),
 ('throw', 62),
 ('pick', 62),
 ('search', 60),
 ('pour', 60),
 ('plead', 57),
 ('dance', 57),
 ('sprawl', 56),
 ('leg-rest', 52),
 ('stretch', 52),
 ('take-off', 50),
 ('faint', 48),
 ('stand-up', 47),
 ('thumb-up', 47),
 ('wipe', 47),
 ('apologize', 43),
 ('lift-foot', 42),
 ('shake', 39),
 ('climb', 39),
 ('sing', 37),
 ('kidnap', 34),
 ('tap', 32),
 ('latch', 32),
 ('v-hand', 29),
 ('cold', 29),
 ('squeeze', 28),
 ('knock', 27),
 ('break', 26),
 ('spread-leg', 23),
 ('hold-door', 23),
 ('read', 19),
 ('vomit', 18),
 ('shh', 17),
 ('quarrel', 17),
 ('cross-finger', 16),
 ('knock-door', 16),
 ('hit', 15),
 ('open', 15),
 ('hang', 15),
 ('ahem', 14),
 ('open-window', 14),
 ('seduce', 14),
 ('beg', 13),
 ('pray', 13),
 ('get-up', 13),
 ('upside-down', 13),
 ('contempt', 12),
 ('put-on', 11),
 ('cook', 10),
 ('breath', 10),
 ('wash', 9),
 ('fishing', 9),
 ('tiptoe', 8),
 ('make-face', 8),
 ('harass', 7),
 ('profess', 6),
 ('close-window', 5),
 ('sneeze', 5),
 ('hold-breast', 5),
 ('repair', 5),
 ('seized', 5),
 ('throttle', 5),
 ('nightmare', 4),
 ('salute', 4),
 ('sniff', 4),
 ('drop', 4),
 ('hungry', 3),
 ('snap', 3),
 ('rip', 3),
 ('arm-rest', 2),
 ('trip', 2),
 ('close', 2),
 ('close-fridge', 2),
 ('clean', 2),
 ('spy', 2),
 ('pull-ear', 2),
 ('soak', 2),
 ('tongue', 2),
 ('elbow', 2),
 ('move-back', 2),
 ('hand-on-neck', 2),
 ('open-eye', 1),
 ('open-fridge', 1),
 ('blow', 1),
 ('disinterest', 1),
 ('whistle', 1),
 ('envy', 1),
 ('dizzy', 1),
 ('chore', 0),
 ('pull', 0),
 ('determine', 0)]
dress-------------------------
[('upper', 21510),
 ('drs-x', 15410),
 ('lower', 7617),
 ('white', 2654),
 ('long', 2234),
 ('short', 1576),
 ('gray', 1552),
 ('plaid', 1175),
 ('black', 853),
 ('kimono', 793),
 ('pattern', 770),
 ('shoe', 328),
 ('nude', 270),
 ('skirt', 148),
 ('tie', 116),
 ('towel', 103),
 ('apron', 86),
 ('glove', 75),
 ('underwear', 64),
 ('DKNY', 62),
 ('slipper', 58),
 ('jeans', 43),
 ('CK', 43),
 ('bikini', 34),
 ('uniform', 27),
 ('canvas', 23),
 ('bathrobe', 21),
 ('tights', 21),
 ('AMFC', 17),
 ('bra', 13),
 ('sneaker', 7),
 ('BOY', 7),
 ('belt', 5),
 ('striped', 4),
 ('SPRIT', 2),
 ('plumb', 1)]
extension-------------------------
[('head', 3602),
 ('hand', 805),
 ('eye', 682),
 ('cute', 630),
 ('shoulder', 172),
 ('silhouette', 131),
 ('arm', 82),
 ('hair', 82),
 ('mouth', 56),
 ('foot', 55),
 ('breast', 28),
 ('leg', 26),
 ('butt', 9),
 ('whitehair', 5),
 ('neck', 1),
 ('coin', 1)]
scene-------------------------
[('inner', 4461),
 ('day', 2369),
 ('scn-x', 2060),
 ('night', 1162),
 ('wakanae', 1039),
 ('hotel', 796),
 ('porch', 645),
 ('shop', 558),
 ('bedroom', 507),
 ('school', 424),
 ('street', 410),
 ('studio', 367),
 ('diningroom', 363),
 ('park', 345),
 ('vicinity', 320),
 ('balcony', 313),
 ('livingroom', 267),
 ('classroom', 257),
 ('club', 241),
 ('station', 237),
 ('party', 237),
 ('roof', 223),
 ('bathroom', 209),
 ('ground', 189),
 ('kitchen', 184),
 ('film-club', 163),
 ('masoba-house', 137),
 ('grandpa-house', 135),
 ('yard', 128),
 ('hall', 127),
 ('hospital', 103),
 ('yoko-house', 89),
 ('guestroom', 81),
 ('niche-room', 68),
 ('beach', 64),
 ('yanagiba', 62),
 ('tatsu-office', 53),
 ('backstreet', 53),
 ('ejima-house', 43),
 ('s-car', 42),
 ('wakanae-old', 37),
 ('livingroom2', 33),
 ('kimihiro-house', 28),
 ('resort', 24),
 ('changing-room', 24),
 ('s-passage', 23),
 ('storeroom', 21),
 ('kenji-house', 14),
 ('kazuko-house', 14),
 ('s-landscape', 13),
 ('holiday', 11),
 ('church', 9),
 ('s-road', 8),
 ('office', 1)]
prop-------------------------
[('prop-x', 3525),
 ('passerby', 2074),
 ('door', 1570),
 ('bag', 1543),
 ('tree', 1489),
 ('building', 1017),
 ('window', 964),
 ('light', 925),
 ('sky', 873),
 ('table', 872),
 ('chair', 837),
 ('bedlinen', 658),
 ('dinnerware', 648),
 ('sofa', 572),
 ('road', 524),
 ('paper', 518),
 ('passage', 506),
 ('car', 486),
 ('pole', 485),
 ('phone', 469),
 ('floor', 454),
 ('smoke', 451),
 ('cloud', 436),
 ('curtain', 400),
 ('landscape', 395),
 ('device', 370),
 ('crowd', 366),
 ('cup', 355),
 ('plant', 343),
 ('food', 338),
 ('balustrade', 324),
 ('desk', 321),
 ('stairs', 276),
 ('plate', 250),
 ('cloth', 236),
 ('furniture', 230),
 ('book', 230),
 ('stationery', 229),
 ('bandage', 223),
 ('bottle', 217),
 ('wall', 215),
 ('chopstick', 204),
 ('garbage', 204),
 ('frame', 203),
 ('ceiling', 201),
 ('logo', 198),
 ('tear', 181),
 ('box', 167),
 ('sign', 164),
 ('umbrella', 158),
 ('stone', 157),
 ('star', 155),
 ('train', 145),
 ('fence', 143),
 ('waiter', 132),
 ('rainy', 132),
 ('bookshelf', 127),
 ('blind', 126),
 ('water', 126),
 ('leaf', 108),
 ('mountain', 104),
 ('wardrobe', 100),
 ('noise', 96),
 ('shadow', 93),
 ('camera', 91),
 ('toy', 90),
 ('pen', 87),
 ('ball', 87),
 ('handle', 85),
 ('clock', 76),
 ('instrument', 70),
 ('mirror', 69),
 ('bike', 68),
 ('flower', 68),
 ('air-conditioner', 65),
 ('stick', 65),
 ('hat', 64),
 ('sea', 60),
 ('bowl', 59),
 ('gift', 58),
 ('film', 54),
 ('letter', 51),
 ('pot', 50),
 ('switch', 48),
 ('grass', 47),
 ('cushion', 46),
 ('fridge', 45),
 ('splash', 43),
 ('wedding-dress', 43),
 ('fountain', 39),
 ('sink', 39),
 ('photo', 38),
 ('mat', 36),
 ('disk', 35),
 ('eardrop', 35),
 ('plane', 34),
 ('mic', 33),
 ('glass', 33),
 ('hankie', 31),
 ('tv', 30),
 ('bridge', 29),
 ('glasses', 29),
 ('broken', 29),
 ('dragonfly', 28),
 ('tomb', 28),
 ('doorplate', 27),
 ('computer', 26),
 ('pipe', 26),
 ('bed', 25),
 ('niche', 24),
 ('bell', 24),
 ('drainage', 24),
 ('cosplay', 23),
 ('bird', 22),
 ('toiletry', 22),
 ('ring', 21),
 ('screen', 21),
 ('baby', 21),
 ('newspaper', 19),
 ('animal', 19),
 ('string', 19),
 ('lift', 18),
 ('zippo', 18),
 ('album', 15),
 ('basket', 14),
 ('moon', 14),
 ('map', 14),
 ('gun', 14),
 ('stage', 13),
 ('ink', 11),
 ('shave', 11),
 ('faucet', 10),
 ('cleaner', 10),
 ('knife', 10),
 ('flash', 10),
 ('blind-road', 9),
 ('torch', 9),
 ('condom', 9),
 ('fish-pole', 8),
 ('bleed', 8),
 ('thermometer', 8),
 ('mark', 8),
 ('washer', 7),
 ('ladder', 7),
 ('well', 7),
 ('blood', 7),
 ('ticket', 7),
 ('vase', 7),
 ('glue', 6),
 ('tape', 6),
 ('extinguisher', 6),
 ('p-slipper', 6),
 ('injury', 6),
 ('smoking-set', 6),
 ('poster', 5),
 ('bucket', 5),
 ('calendar', 5),
 ('trap', 5),
 ('wet', 5),
 ('saliva', 4),
 ('toothbrush', 4),
 ('sun', 4),
 ('sculpture', 4),
 ('subway', 4),
 ('pin', 3),
 ('booth', 3),
 ('sock', 3),
 ('bullet', 3),
 ('snow', 3),
 ('insect', 3),
 ('key', 3),
 ('sth-open', 3),
 ('p-shoe', 3),
 ('spoon', 2),
 ('guitar', 2),
 ('monster', 2),
 ('dispenser', 2),
 ('curve', 2),
 ('balloon', 2),
 ('heater', 1),
 ('candy', 1),
 ('dust', 1),
 ('wallet', 1),
 ('oven', 1),
 ('boat', 1),
 ('price', 1),
 ('wig', 1),
 ('fan', 0),
 ('roller-coaster', 0),
 ('ferris-wheel', 0),
 ('spaceship', 0)]
effect-------------------------
[('dark', 310),
 ('clash', 262),
 ('wind', 162),
 ('focus', 157),
 ('fast', 152),
 ('tension', 116),
 ('white-hair', 96),
 ('sunny', 94),
 ('music', 66),
 ('gradient', 62),
 ('dof', 42),
 ('glow', 37),
 ('fx-x', 30),
 ('line', 23),
 ('hot', 16),
 ('heart', 14),
 ('icon', 12),
 ('fire', 10),
 ('gloomy', 9),
 ('blur', 6),
 ('distort', 6),
 ('arrow', 4),
 ('dapple', 4),
 ('luminescent', 4),
 ('mosaic', 3),
 ('dialogue', 3),
 ('text', 3),
 ('glitter', 2),
 ('question', 1),
 ('death', 1),
 ('yarn', 1),
 ('annotation', 0)]